Manipulação de Dados
…
Vamos utilizar as três tabelas de dados abaixo nos exercícios a seguir; portanto, importe elas para a sua sessão do R:

dados dos projetos.csv, e atribua este arquivo ao objeto projetos;

publicacoes.xls, e atribua este arquivo ao objeto publicacoes;

revistas.xlsx, e atribua este arquivo ao objeto revistas.

Além disso, vamos utilizar mais um conjunto de dados para a demonstração dos verbos do tidyverse: o gapminder. Carregue-o como no exemplo abaixo.

library(gapminder)
gapminder

## # A tibble: 1,704 x 6
##    country     continent  year lifeExp      pop gdpPercap
##    <fct>       <fct>     <int>   <dbl>    <int>     <dbl>
##  1 Afghanistan Asia       1952    28.8  8425333      779.
##  2 Afghanistan Asia       1957    30.3  9240934      821.
##  3 Afghanistan Asia       1962    32.0 10267083      853.
##  4 Afghanistan Asia       1967    34.0 11537966      836.
##  5 Afghanistan Asia       1972    36.1 13079460      740.
##  6 Afghanistan Asia       1977    38.4 14880372      786.
##  7 Afghanistan Asia       1982    39.9 12881816      978.
##  8 Afghanistan Asia       1987    40.8 13867957      852.
##  9 Afghanistan Asia       1992    41.7 16317921      649.
## 10 Afghanistan Asia       1997    41.8 22227415      635.
## # ... with 1,694 more rows

rename

Utilizada para renomear colunas específicas, contornando a necessidade de indexação.

O uso dessa função evita a necessidade do uso da indexação para renomear colunas específicas.

gap2 <- rename(.data = gapminder, pais = country, continente = continent, ano = year, gdp = gdpPercap)
gap2

## # A tibble: 1,704 x 6
##    pais        continente   ano lifeExp      pop   gdp
##    <fct>       <fct>      <int>   <dbl>    <int> <dbl>
##  1 Afghanistan Asia        1952    28.8  8425333  779.
##  2 Afghanistan Asia        1957    30.3  9240934  821.
##  3 Afghanistan Asia        1962    32.0 10267083  853.
##  4 Afghanistan Asia        1967    34.0 11537966  836.
##  5 Afghanistan Asia        1972    36.1 13079460  740.
##  6 Afghanistan Asia        1977    38.4 14880372  786.
##  7 Afghanistan Asia        1982    39.9 12881816  978.
##  8 Afghanistan Asia        1987    40.8 13867957  852.
##  9 Afghanistan Asia        1992    41.7 16317921  649.
## 10 Afghanistan Asia        1997    41.8 22227415  635.
## # ... with 1,694 more rows

select

Utilizada para selecionar uma ou mais colunas de acordo com seu nome.

# somente o pais, ano e gdp per capita
select(.data = gap2, pais, ano, gdp)

## # A tibble: 1,704 x 3
##    pais          ano   gdp
##    <fct>       <int> <dbl>
##  1 Afghanistan  1952  779.
##  2 Afghanistan  1957  821.
##  3 Afghanistan  1962  853.
##  4 Afghanistan  1967  836.
##  5 Afghanistan  1972  740.
##  6 Afghanistan  1977  786.
##  7 Afghanistan  1982  978.
##  8 Afghanistan  1987  852.
##  9 Afghanistan  1992  649.
## 10 Afghanistan  1997  635.
## # ... with 1,694 more rows

# apenas algumas colunas e reordenando elas
select(.data = gap2, gdp, pais:lifeExp)

## # A tibble: 1,704 x 5
##      gdp pais        continente   ano lifeExp
##    <dbl> <fct>       <fct>      <int>   <dbl>
##  1  779. Afghanistan Asia        1952    28.8
##  2  821. Afghanistan Asia        1957    30.3
##  3  853. Afghanistan Asia        1962    32.0
##  4  836. Afghanistan Asia        1967    34.0
##  5  740. Afghanistan Asia        1972    36.1
##  6  786. Afghanistan Asia        1977    38.4
##  7  978. Afghanistan Asia        1982    39.9
##  8  852. Afghanistan Asia        1987    40.8
##  9  649. Afghanistan Asia        1992    41.7
## 10  635. Afghanistan Asia        1997    41.8
## # ... with 1,694 more rows

# removendo um conjunto de colunas
select(.data = gap2, -continente, -lifeExp)

## # A tibble: 1,704 x 4
##    pais          ano      pop   gdp
##    <fct>       <int>    <int> <dbl>
##  1 Afghanistan  1952  8425333  779.
##  2 Afghanistan  1957  9240934  821.
##  3 Afghanistan  1962 10267083  853.
##  4 Afghanistan  1967 11537966  836.
##  5 Afghanistan  1972 13079460  740.
##  6 Afghanistan  1977 14880372  786.
##  7 Afghanistan  1982 12881816  978.
##  8 Afghanistan  1987 13867957  852.
##  9 Afghanistan  1992 16317921  649.
## 10 Afghanistan  1997 22227415  635.
## # ... with 1,694 more rows
…
Deste mesmo conjunto de dados, remova a coluna Title.

Do conjunto de dados que contém a informação dos projetos, selecione a coluna com o ID do coordenador do projeto e todas as colunas que representam de recursos gastos em cada projeto.

arrange

Utilizada para ordernar as linhas de uma tabela em ordem crescente ou decrescente.

O uso dessa função elimina a necessidade da indexação para definir a ordem das linhas em uma tabela - pode ser muito útil para algumas análises que fazemos como, por exemplo, as análises de aninhamento que utilizamos na ecologia de comunidades.

# de acordo com a ordem crescente
arrange(.data = gap2, ano)

## # A tibble: 1,704 x 6
##    pais        continente   ano lifeExp      pop    gdp
##    <fct>       <fct>      <int>   <dbl>    <int>  <dbl>
##  1 Afghanistan Asia        1952    28.8  8425333   779.
##  2 Albania     Europe      1952    55.2  1282697  1601.
##  3 Algeria     Africa      1952    43.1  9279525  2449.
##  4 Angola      Africa      1952    30.0  4232095  3521.
##  5 Argentina   Americas    1952    62.5 17876956  5911.
##  6 Australia   Oceania     1952    69.1  8691212 10040.
##  7 Austria     Europe      1952    66.8  6927772  6137.
##  8 Bahrain     Asia        1952    50.9   120447  9867.
##  9 Bangladesh  Asia        1952    37.5 46886859   684.
## 10 Belgium     Europe      1952    68    8730405  8343.
## # ... with 1,694 more rows

# pela ordem decrescente
arrange(.data = gap2, desc(ano))

## # A tibble: 1,704 x 6
##    pais        continente   ano lifeExp       pop    gdp
##    <fct>       <fct>      <int>   <dbl>     <int>  <dbl>
##  1 Afghanistan Asia        2007    43.8  31889923   975.
##  2 Albania     Europe      2007    76.4   3600523  5937.
##  3 Algeria     Africa      2007    72.3  33333216  6223.
##  4 Angola      Africa      2007    42.7  12420476  4797.
##  5 Argentina   Americas    2007    75.3  40301927 12779.
##  6 Australia   Oceania     2007    81.2  20434176 34435.
##  7 Austria     Europe      2007    79.8   8199783 36126.
##  8 Bahrain     Asia        2007    75.6    708573 29796.
##  9 Bangladesh  Asia        2007    64.1 150448339  1391.
## 10 Belgium     Europe      2007    79.4  10392226 33693.
## # ... with 1,694 more rows

# utilizando mais de uma coluna e diferentes critérios
arrange(.data = gap2, desc(ano), lifeExp)

## # A tibble: 1,704 x 6
##    pais                     continente   ano lifeExp      pop   gdp
##    <fct>                    <fct>      <int>   <dbl>    <int> <dbl>
##  1 Swaziland                Africa      2007    39.6  1133066 4513.
##  2 Mozambique               Africa      2007    42.1 19951656  824.
##  3 Zambia                   Africa      2007    42.4 11746035 1271.
##  4 Sierra Leone             Africa      2007    42.6  6144562  863.
##  5 Lesotho                  Africa      2007    42.6  2012649 1569.
##  6 Angola                   Africa      2007    42.7 12420476 4797.
##  7 Zimbabwe                 Africa      2007    43.5 12311143  470.
##  8 Afghanistan              Asia        2007    43.8 31889923  975.
##  9 Central African Republic Africa      2007    44.7  4369038  706.
## 10 Liberia                  Africa      2007    45.7  3193942  415.
## # ... with 1,694 more rows
…
# dados das Americas, apenas os 20 últimos anos
filter(.data = gap2, continente == "Americas", ano > 1996)

## # A tibble: 75 x 6
##    pais      continente   ano lifeExp       pop    gdp
##    <fct>     <fct>      <int>   <dbl>     <int>  <dbl>
##  1 Argentina Americas    1997    73.3  36203463 10967.
##  2 Argentina Americas    2002    74.3  38331121  8798.
##  3 Argentina Americas    2007    75.3  40301927 12779.
##  4 Bolivia   Americas    1997    62.0   7693188  3326.
##  5 Bolivia   Americas    2002    63.9   8445134  3413.
##  6 Bolivia   Americas    2007    65.6   9119152  3822.
##  7 Brazil    Americas    1997    69.4 168546719  7958.
##  8 Brazil    Americas    2002    71.0 179914212  8131.
##  9 Brazil    Americas    2007    72.4 190010647  9066.
## 10 Canada    Americas    1997    78.6  30305843 28955.
## # ... with 65 more rows

# dados das Americas ou Europa, apenas os 20 últimos anos
filter(.data = gap2, continente == "Americas" | continente == "Europe", ano > 1996)

## # A tibble: 165 x 6
##    pais      continente   ano lifeExp      pop    gdp
##    <fct>     <fct>      <int>   <dbl>    <int>  <dbl>
##  1 Albania   Europe      1997    73.0  3428038  3193.
##  2 Albania   Europe      2002    75.7  3508512  4604.
##  3 Albania   Europe      2007    76.4  3600523  5937.
##  4 Argentina Americas    1997    73.3 36203463 10967.
##  5 Argentina Americas    2002    74.3 38331121  8798.
##  6 Argentina Americas    2007    75.3 40301927 12779.
##  7 Austria   Europe      1997    77.5  8069876 29096.
##  8 Austria   Europe      2002    79.0  8148312 32418.
##  9 Austria   Europe      2007    79.8  8199783 36126.
## 10 Belgium   Europe      1997    77.5 10199787 27561.
## # ... with 155 more rows

Podemos utilizar o argumento lógico %in% para selecionar múltiplos elementos de uma mesma coluna.

# dados das Americas Europa e Oceania, apenas os 20 últimos anos
filter(.data = gapminder, continent %in% c("Americas", "Europe", "Oceania"), year > 1996)

## # A tibble: 171 x 6
##    country   continent  year lifeExp      pop gdpPercap
##    <fct>     <fct>     <int>   <dbl>    <int>     <dbl>
##  1 Albania   Europe     1997    73.0  3428038     3193.
##  2 Albania   Europe     2002    75.7  3508512     4604.
##  3 Albania   Europe     2007    76.4  3600523     5937.
##  4 Argentina Americas   1997    73.3 36203463    10967.
##  5 Argentina Americas   2002    74.3 38331121     8798.
##  6 Argentina Americas   2007    75.3 40301927    12779.
##  7 Australia Oceania    1997    78.8 18565243    26998.
##  8 Australia Oceania    2002    80.4 19546792    30688.
##  9 Australia Oceania    2007    81.2 20434176    34435.
## 10 Austria   Europe     1997    77.5  8069876    29096.
## # ... with 161 more rows

E podemos criar uma função para fazer o inverso do %in%!

## criando a função
`%nin%` <- Negate(f = `%in%`)

## removendo os dados das Americas, Europa e Oceania
filter(.data = gapminder, continent %nin% c("Americas", "Europe", "Oceania"), year > 1996)

## # A tibble: 255 x 6
##    country     continent  year lifeExp      pop gdpPercap
##    <fct>       <fct>     <int>   <dbl>    <int>     <dbl>
##  1 Afghanistan Asia       1997    41.8 22227415      635.
##  2 Afghanistan Asia       2002    42.1 25268405      727.
##  3 Afghanistan Asia       2007    43.8 31889923      975.
##  4 Algeria     Africa     1997    69.2 29072015     4797.
##  5 Algeria     Africa     2002    71.0 31287142     5288.
##  6 Algeria     Africa     2007    72.3 33333216     6223.
##  7 Angola      Africa     1997    41.0  9875024     2277.
##  8 Angola      Africa     2002    41.0 10866106     2773.
##  9 Angola      Africa     2007    42.7 12420476     4797.
## 10 Bahrain     Asia       1997    73.9   598561    20292.
## # ... with 245 more rows
…
Quais foram os projetos financiados no estado do São Paulo?

Quais os projetos financiados no estado do São Paulo foram coordenados por mulheres?

Onde estão localizados os bolsistas de produtividade 1C ou 1D que mais gastaram recursos?

mutate

Cria uma nova coluna na tabela de dados, inclusive usando as próprias colunas que estão sendo criadas dentro da função naquele momento.

# criando duas novas coluna
gap3 <- mutate(.data = gap2, expectativa = round(lifeExp, digits = 0), expectativa_log = log(expectativa))
gap3

## # A tibble: 1,704 x 8
##    pais  continente   ano lifeExp    pop   gdp expectativa expectativa_log
##    <fct> <fct>      <int>   <dbl>  <int> <dbl>       <dbl>           <dbl>
##  1 Afgh~ Asia        1952    28.8 8.43e6  779.          29            3.37
##  2 Afgh~ Asia        1957    30.3 9.24e6  821.          30            3.40
##  3 Afgh~ Asia        1962    32.0 1.03e7  853.          32            3.47
##  4 Afgh~ Asia        1967    34.0 1.15e7  836.          34            3.53
##  5 Afgh~ Asia        1972    36.1 1.31e7  740.          36            3.58
##  6 Afgh~ Asia        1977    38.4 1.49e7  786.          38            3.64
##  7 Afgh~ Asia        1982    39.9 1.29e7  978.          40            3.69
##  8 Afgh~ Asia        1987    40.8 1.39e7  852.          41            3.71
##  9 Afgh~ Asia        1992    41.7 1.63e7  649.          42            3.74
## 10 Afgh~ Asia        1997    41.8 2.22e7  635.          42            3.74
## # ... with 1,694 more rows

# criando mais duas colunas
gap4 <- mutate(.data = gap3, gdp_total = gdp * pop, gdp_log = log(gdp_total))
gap4

## # A tibble: 1,704 x 10
##    pais  continente   ano lifeExp    pop   gdp expectativa expectativa_log
##    <fct> <fct>      <int>   <dbl>  <int> <dbl>       <dbl>           <dbl>
##  1 Afgh~ Asia        1952    28.8 8.43e6  779.          29            3.37
##  2 Afgh~ Asia        1957    30.3 9.24e6  821.          30            3.40
##  3 Afgh~ Asia        1962    32.0 1.03e7  853.          32            3.47
##  4 Afgh~ Asia        1967    34.0 1.15e7  836.          34            3.53
##  5 Afgh~ Asia        1972    36.1 1.31e7  740.          36            3.58
##  6 Afgh~ Asia        1977    38.4 1.49e7  786.          38            3.64
##  7 Afgh~ Asia        1982    39.9 1.29e7  978.          40            3.69
##  8 Afgh~ Asia        1987    40.8 1.39e7  852.          41            3.71
##  9 Afgh~ Asia        1992    41.7 1.63e7  649.          42            3.74
## 10 Afgh~ Asia        1997    41.8 2.22e7  635.          42            3.74
## # ... with 1,694 more rows, and 2 more variables: gdp_total <dbl>,
## #   gdp_log <dbl>
…
Para quais objetivos você acredita ser melhor usar a função mutate e para quais objetivos você acredita ser melhor usar a função summarise?

group_by

Com muita frequência queremos realizar operações estratificadas, isto é, aplicar a mesma operação ou obter uma dada informação para subgrupos dentro de um conjunto de dados.

Neste sentido, o uso da função group_by antes de aplicarmos um filter, mutate ou summarise é muito útil.

# agrupando o conjunto de dados do gapminder por continente
# note agora a presença de uma linha escrito "Groups"
gap3 <- group_by(.data = gap2, continente)
gap3

## # A tibble: 1,704 x 6
## # Groups:   continente [5]
##    pais        continente   ano lifeExp      pop   gdp
##    <fct>       <fct>      <int>   <dbl>    <int> <dbl>
##  1 Afghanistan Asia        1952    28.8  8425333  779.
##  2 Afghanistan Asia        1957    30.3  9240934  821.
##  3 Afghanistan Asia        1962    32.0 10267083  853.
##  4 Afghanistan Asia        1967    34.0 11537966  836.
##  5 Afghanistan Asia        1972    36.1 13079460  740.
##  6 Afghanistan Asia        1977    38.4 14880372  786.
##  7 Afghanistan Asia        1982    39.9 12881816  978.
##  8 Afghanistan Asia        1987    40.8 13867957  852.
##  9 Afghanistan Asia        1992    41.7 16317921  649.
## 10 Afghanistan Asia        1997    41.8 22227415  635.
## # ... with 1,694 more rows
…
## # A tibble: 5 x 5
##   continente MeanExp MaxExp MinExp SDExp
##   <fct>        <dbl>  <dbl>  <dbl> <dbl>
## 1 Africa        48.9   76.4   23.6  9.15
## 2 Americas      64.7   80.7   37.6  9.35
## 3 Asia          60.1   82.6   28.8 11.9 
## 4 Europe        71.9   81.8   43.6  5.43
## 5 Oceania       74.3   81.2   69.1  3.80

Podemos aplicar tantos grupos quanto quisermos utilizando a função group_by.

gap4 <- group_by(.data = gap2, continente, ano)
gap4

## # A tibble: 1,704 x 6
## # Groups:   continente, ano [60]
##    pais        continente   ano lifeExp      pop   gdp
##    <fct>       <fct>      <int>   <dbl>    <int> <dbl>
##  1 Afghanistan Asia        1952    28.8  8425333  779.
##  2 Afghanistan Asia        1957    30.3  9240934  821.
##  3 Afghanistan Asia        1962    32.0 10267083  853.
##  4 Afghanistan Asia        1967    34.0 11537966  836.
##  5 Afghanistan Asia        1972    36.1 13079460  740.
##  6 Afghanistan Asia        1977    38.4 14880372  786.
##  7 Afghanistan Asia        1982    39.9 12881816  978.
##  8 Afghanistan Asia        1987    40.8 13867957  852.
##  9 Afghanistan Asia        1992    41.7 16317921  649.
## 10 Afghanistan Asia        1997    41.8 22227415  635.
## # ... with 1,694 more rows

summarise(.data = gap4, MeanExp = mean(lifeExp), MaxExp = max(lifeExp), MinExp = min(lifeExp), SDExp = sd(lifeExp))

## # A tibble: 60 x 6
## # Groups:   continente [?]
##    continente   ano MeanExp MaxExp MinExp SDExp
##    <fct>      <int>   <dbl>  <dbl>  <dbl> <dbl>
##  1 Africa      1952    39.1   52.7   30    5.15
##  2 Africa      1957    41.3   58.1   31.6  5.62
##  3 Africa      1962    43.3   60.2   32.8  5.88
##  4 Africa      1967    45.3   61.6   34.1  6.08
##  5 Africa      1972    47.5   64.3   35.4  6.42
##  6 Africa      1977    49.6   67.1   36.8  6.81
##  7 Africa      1982    51.6   69.9   38.4  7.38
##  8 Africa      1987    53.3   71.9   39.9  7.86
##  9 Africa      1992    53.6   73.6   23.6  9.46
## 10 Africa      1997    53.6   74.8   36.1  9.10
## # ... with 50 more rows
…
## # A tibble: 5 x 6
## # Groups:   continente [5]
##   pais        continente   ano lifeExp      pop    gdp
##   <fct>       <fct>      <int>   <dbl>    <int>  <dbl>
## 1 Afghanistan Asia        1952    28.8  8425333   779.
## 2 Australia   Oceania     1952    69.1  8691212 10040.
## 3 Haiti       Americas    1952    37.6  3201488  1840.
## 4 Rwanda      Africa      1992    23.6  7290203   737.
## 5 Turkey      Europe      1952    43.6 22235677  1969.

Para quebrar o agrupamento basta utilizarmos a função ungroup.

ungroup(x = gap3)

## # A tibble: 1,704 x 6
##    pais        continente   ano lifeExp      pop   gdp
##    <fct>       <fct>      <int>   <dbl>    <int> <dbl>
##  1 Afghanistan Asia        1952    28.8  8425333  779.
##  2 Afghanistan Asia        1957    30.3  9240934  821.
##  3 Afghanistan Asia        1962    32.0 10267083  853.
##  4 Afghanistan Asia        1967    34.0 11537966  836.
##  5 Afghanistan Asia        1972    36.1 13079460  740.
##  6 Afghanistan Asia        1977    38.4 14880372  786.
##  7 Afghanistan Asia        1982    39.9 12881816  978.
##  8 Afghanistan Asia        1987    40.8 13867957  852.
##  9 Afghanistan Asia        1992    41.7 16317921  649.
## 10 Afghanistan Asia        1997    41.8 22227415  635.
## # ... with 1,694 more rows
…
