Limpeza de Dados
…
## [1] 4594

# excluindo duplicatas que do para ser excludas no momento
length(x = unique(x = autores$nome))

## [1] 3109

Podemos tambm remover entradas duplicatas de uma tabela inteira de forma bem fcil, atravs da funo distinct disponvel no pacote dplyr - que pode ser carregada atravs do tidyverse.

library(tidyverse)
distinct(.data = projetos, id_coordenador, .keep_all = TRUE)

## # A tibble: 111 x 26
##    Processo Chamada id_coordenador sexo  inicio termino instituicao uf   
##       <dbl> <chr>            <int> <chr> <chr>  <chr>   <chr>       <chr>
##  1  4.86e10 Univer~              1 M     06/11~ 05/11/~ FURG        RS   
##  2  4.01e10 BJT                  2 F     12/09~ 11/09/~ UFSCAR      SP   
##  3  4.82e10 Univer~              3 M     08/11~ 30/11/~ UFPR-PRPG   PR   
##  4  4.72e10 Univer~              4 F     14/12~ 31/12/~ UFRPE       PE   
##  5  4.76e10 Univer~              5 M     30/10~ 31/10/~ UFPB        PB   
##  6  4.82e10 Univer~              6 M     07/05~ 05/05/~ INPA        AM   
##  7  4.80e10 Univer~              7 M     19/11~ 18/11/~ INPA        AM   
##  8  4.46e10 Incuba~              8 M     02/08~ 31/12/~ PUC GOIAS   GO   
##  9  4.58e10 PPBio ~              9 M     12/12~ 11/12/~ UFRJ        RJ   
## 10  4.72e10 Univer~             10 M     28/11~ 30/11/~ UERJ        RJ   
## # ... with 101 more rows, and 18 more variables: cidade <chr>,
## #   regiao <chr>, duracao <int>, brasileiro <chr>, produtividade <chr>,
## #   doutorado <int>, doutorado_exterior <chr>, sanduiche <chr>,
## #   posdoc <chr>, indiceH <int>, bolsa_contratado <dbl>,
## #   bolsa_gasto <int>, capital_contratado <dbl>, capital_gasto <dbl>,
## #   custeio_contratado <dbl>, custeio_gasto <dbl>, total_fornecido <dbl>,
## #   total_gasto <dbl>
…
Exerccio 3

Substitua o erro de digitao que ns encontramos na coluna Chamada do objeto que contm os dados dos projetos, de forma que este conserto seja permanente neste conjunto de dados

Podemos tambm editar os valores de uma coluna atravs de testes lgicos, utilizando a funo ifelse.

# a coluna 'sexo' do objeto projetos  representa por M, para masculino, ou F, para feminino
projetos

## # A tibble: 119 x 26
##    Processo Chamada id_coordenador sexo  inicio termino instituicao uf   
##       <dbl> <chr>            <int> <chr> <chr>  <chr>   <chr>       <chr>
##  1  4.86e10 Univer~              1 M     06/11~ 05/11/~ FURG        RS   
##  2  4.01e10 BJT                  2 F     12/09~ 11/09/~ UFSCAR      SP   
##  3  4.82e10 Univer~              3 M     08/11~ 30/11/~ UFPR-PRPG   PR   
##  4  4.72e10 Univer~              4 F     14/12~ 31/12/~ UFRPE       PE   
##  5  4.76e10 Univer~              5 M     30/10~ 31/10/~ UFPB        PB   
##  6  4.82e10 Univer~              6 M     07/05~ 05/05/~ INPA        AM   
##  7  4.80e10 Univer~              7 M     19/11~ 18/11/~ INPA        AM   
##  8  4.46e10 Incuba~              8 M     02/08~ 31/12/~ PUC GOIAS   GO   
##  9  4.58e10 PPBio ~              9 M     12/12~ 11/12/~ UFRJ        RJ   
## 10  4.72e10 Univer~             10 M     28/11~ 30/11/~ UERJ        RJ   
## # ... with 109 more rows, and 18 more variables: cidade <chr>,
## #   regiao <chr>, duracao <int>, brasileiro <chr>, produtividade <chr>,
## #   doutorado <int>, doutorado_exterior <chr>, sanduiche <chr>,
## #   posdoc <chr>, indiceH <int>, bolsa_contratado <dbl>,
## #   bolsa_gasto <int>, capital_contratado <dbl>, capital_gasto <dbl>,
## #   custeio_contratado <dbl>, custeio_gasto <dbl>, total_fornecido <dbl>,
## #   total_gasto <dbl>

## substituindo
projetos <- projetos %>% 
  mutate(sexo = ifelse(test = sexo == "M", yes = "masculino", no = "feminino"))
projetos

## # A tibble: 119 x 26
##    Processo Chamada id_coordenador sexo  inicio termino instituicao uf   
##       <dbl> <chr>            <int> <chr> <chr>  <chr>   <chr>       <chr>
##  1  4.86e10 Univer~              1 masc~ 06/11~ 05/11/~ FURG        RS   
##  2  4.01e10 BJT                  2 femi~ 12/09~ 11/09/~ UFSCAR      SP   
##  3  4.82e10 Univer~              3 masc~ 08/11~ 30/11/~ UFPR-PRPG   PR   
##  4  4.72e10 Univer~              4 femi~ 14/12~ 31/12/~ UFRPE       PE   
##  5  4.76e10 Univer~              5 masc~ 30/10~ 31/10/~ UFPB        PB   
##  6  4.82e10 Univer~              6 masc~ 07/05~ 05/05/~ INPA        AM   
##  7  4.80e10 Univer~              7 masc~ 19/11~ 18/11/~ INPA        AM   
##  8  4.46e10 Incuba~              8 masc~ 02/08~ 31/12/~ PUC GOIAS   GO   
##  9  4.58e10 PPBio ~              9 masc~ 12/12~ 11/12/~ UFRJ        RJ   
## 10  4.72e10 Univer~             10 masc~ 28/11~ 30/11/~ UERJ        RJ   
## # ... with 109 more rows, and 18 more variables: cidade <chr>,
## #   regiao <chr>, duracao <int>, brasileiro <chr>, produtividade <chr>,
## #   doutorado <int>, doutorado_exterior <chr>, sanduiche <chr>,
## #   posdoc <chr>, indiceH <int>, bolsa_contratado <dbl>,
## #   bolsa_gasto <int>, capital_contratado <dbl>, capital_gasto <dbl>,
## #   custeio_contratado <dbl>, custeio_gasto <dbl>, total_fornecido <dbl>,
## #   total_gasto <dbl>
…
Exerccio 5

Uma tarefa muito comum para quem trabalha com ecologia de comunidades  quantificar a abundncia total e a riqueza de espcies em uma dada comunidade. Nesse sentido, voc poderia criar um data.frame com estas duas quantidades para cada comunidade apresentada no conjunto de dados varespec?

Dica: veja o arquivo de ajuda das funes colSums e rowSums.

Uma outra tarefa comum durante a manipulao de dados est em separar um conjunto de informaes que est junta ou fazer a operao inversa.

Uma forma fcil de separar um conjunto de informaes em diferentes colunas  atravs da funo separate, disponvel no pacote tidyr do tidyverse.

# vamos separa a coluna que indica a data de incio de vigncia do projeto
projetos

## # A tibble: 119 x 26
##    Processo Chamada id_coordenador sexo  inicio termino instituicao uf   
##       <dbl> <chr>            <int> <chr> <chr>  <chr>   <chr>       <chr>
##  1  4.86e10 Univer~              1 masc~ 06/11~ 05/11/~ FURG        RS   
##  2  4.01e10 BJT                  2 femi~ 12/09~ 11/09/~ UFSCAR      SP   
##  3  4.82e10 Univer~              3 masc~ 08/11~ 30/11/~ UFPR-PRPG   PR   
##  4  4.72e10 Univer~              4 femi~ 14/12~ 31/12/~ UFRPE       PE   
##  5  4.76e10 Univer~              5 masc~ 30/10~ 31/10/~ UFPB        PB   
##  6  4.82e10 Univer~              6 masc~ 07/05~ 05/05/~ INPA        AM   
##  7  4.80e10 Univer~              7 masc~ 19/11~ 18/11/~ INPA        AM   
##  8  4.46e10 Incuba~              8 masc~ 02/08~ 31/12/~ PUC GOIAS   GO   
##  9  4.58e10 PPBio ~              9 masc~ 12/12~ 11/12/~ UFRJ        RJ   
## 10  4.72e10 Univer~             10 masc~ 28/11~ 30/11/~ UERJ        RJ   
## # ... with 109 more rows, and 18 more variables: cidade <chr>,
## #   regiao <chr>, duracao <int>, brasileiro <chr>, produtividade <chr>,
## #   doutorado <int>, doutorado_exterior <chr>, sanduiche <chr>,
## #   posdoc <chr>, indiceH <int>, bolsa_contratado <dbl>,
## #   bolsa_gasto <int>, capital_contratado <dbl>, capital_gasto <dbl>,
## #   custeio_contratado <dbl>, custeio_gasto <dbl>, total_fornecido <dbl>,
## #   total_gasto <dbl>

# separando em dia, mes e ano
projetos <- projetos %>% 
  separate(col = inicio, into = c("dia", "mes", "ano"), sep = "/")
projetos

## # A tibble: 119 x 28
##    Processo Chamada id_coordenador sexo  dia   mes   ano   termino
##       <dbl> <chr>            <int> <chr> <chr> <chr> <chr> <chr>  
##  1  4.86e10 Univer~              1 masc~ 06    11    12    05/11/~
##  2  4.01e10 BJT                  2 femi~ 12    09    12    11/09/~
##  3  4.82e10 Univer~              3 masc~ 08    11    13    30/11/~
##  4  4.72e10 Univer~              4 femi~ 14    12    12    31/12/~
##  5  4.76e10 Univer~              5 masc~ 30    10    13    31/10/~
##  6  4.82e10 Univer~              6 masc~ 07    05    13    05/05/~
##  7  4.80e10 Univer~              7 masc~ 19    11    12    18/11/~
##  8  4.46e10 Incuba~              8 masc~ 02    08    16    31/12/~
##  9  4.58e10 PPBio ~              9 masc~ 12    12    12    11/12/~
## 10  4.72e10 Univer~             10 masc~ 28    11    12    30/11/~
## # ... with 109 more rows, and 20 more variables: instituicao <chr>,
## #   uf <chr>, cidade <chr>, regiao <chr>, duracao <int>, brasileiro <chr>,
## #   produtividade <chr>, doutorado <int>, doutorado_exterior <chr>,
## #   sanduiche <chr>, posdoc <chr>, indiceH <int>, bolsa_contratado <dbl>,
## #   bolsa_gasto <int>, capital_contratado <dbl>, capital_gasto <dbl>,
## #   custeio_contratado <dbl>, custeio_gasto <dbl>, total_fornecido <dbl>,
## #   total_gasto <dbl>
…
4. Coero de vetores e colunas

Como vimos, cada coluna de uma tabela importada atravs das funes dos pacotes readr ou readxl  identificada como pertencendo  uma das classes de objeto mais bsicas - i.e., numeric, integer, double, character, logical. Todavia, algumas vezes no queremos que o R enxergue tais informaes dessa forma ou, ainda, precisamos editar a forma como o R ranqueia cada um dos nveis de uma varivel.

Para ilustrar estes casos, vamos carregar o conjunto de dados ilhas.xlsx, que representa um conjunto de dados fictcio sobre os padres de riqueza de espcies em 80 ilhas.

# carregando o conjunto de dados
ilhas <- read_excel(path = "../99 - dados para exemplos/ilhas.xlsx")

Imagine que ns queiramos determinar de que forma a riqueza de espcies varie em funo do nmero de hbitats disponveis em cada ilha. Nesse caso, decidimos que o nmero de habitats  melhor representado por uma varivel categrica, e no como uma varivel contnua. Entretanto, note que a coluna habitat est sinalizada como uma varivel da classe double, e no como um caractere ou um fator.

ilhas

## # A tibble: 80 x 12
##    ID    ilha  arquipelago riqueza   area produtividade populacao habitat
##    <chr> <chr> <chr>         <dbl>  <dbl>         <dbl>     <dbl>   <dbl>
##  1 ilha~ cost~ medio            21 1.51e0          1.57      268.       2
##  2 ilha~ cost~ medio            27 2.24e1          4.56      259.       2
##  3 ilha~ cost~ pequeno          23 4.11e1          2.19      281.       3
##  4 ilha~ ocea~ pequeno          10 2.13e3       2013.        145.       5
##  5 ilha~ cost~ medio            34 1.00e3        244.        516.       4
##  6 ilha~ ocea~ medio            13 3.92e1          3.17      579.       3
##  7 ilha~ cost~ grande           43 3.89e1         18.4       389.       2
##  8 ilha~ ocea~ grande           12 6.12e0          4.40      232.       3
##  9 ilha~ ocea~ pequeno          13 3.17e2         14.3       156.       4
## 10 ilha~ cost~ medio            32 7.86e1         35.8       403.       3
## # ... with 70 more rows, and 4 more variables: montanha <chr>,
## #   mamiferos <dbl>, temperatura <dbl>, precipitacao <dbl>
…
Neste caso, para fazer com que o R entenda que a varivel habitat  uma varivel categrica devemos coagir esta varivel para um caracter ou para um fator.

Observao: muitas funes encaram caracteres como fatores, mas existem alguns casos especficos em que uma funo no vai funcionar a menor que voc coaja uma coluna de caracteres ou de nmeros explicitamente a ser um fator. Portanto, aqui adoto esta prtica a fim de evitar que voc se encontre neste tipo de situao no futuro.

# coagindo a riqueza de habitats a ser interpretada como um fator
ilhas <- ilhas %>% 
  mutate(habitat = as.factor(habitat))
ilhas

## # A tibble: 80 x 12
##    ID    ilha  arquipelago riqueza   area produtividade populacao habitat
##    <chr> <chr> <chr>         <dbl>  <dbl>         <dbl>     <dbl> <fct>  
##  1 ilha~ cost~ medio            21 1.51e0          1.57      268. 2      
##  2 ilha~ cost~ medio            27 2.24e1          4.56      259. 2      
##  3 ilha~ cost~ pequeno          23 4.11e1          2.19      281. 3      
##  4 ilha~ ocea~ pequeno          10 2.13e3       2013.        145. 5      
##  5 ilha~ cost~ medio            34 1.00e3        244.        516. 4      
##  6 ilha~ ocea~ medio            13 3.92e1          3.17      579. 3      
##  7 ilha~ cost~ grande           43 3.89e1         18.4       389. 2      
##  8 ilha~ ocea~ grande           12 6.12e0          4.40      232. 3      
##  9 ilha~ ocea~ pequeno          13 3.17e2         14.3       156. 4      
## 10 ilha~ cost~ medio            32 7.86e1         35.8       403. 3      
## # ... with 70 more rows, and 4 more variables: montanha <chr>,
## #   mamiferos <dbl>, temperatura <dbl>, precipitacao <dbl>
…
## Analysis of Variance Table
## 
## Response: riqueza
##           Df  Sum Sq Mean Sq F value Pr(>F)
## habitat    5  1150.8  230.15  0.9455 0.4569
## Residuals 74 18013.2  243.42

Para algumas anlises ou testar algumas hipteses em especfico podemos tambm coagir uma fator a ser compreendido como um fator ordenado; ou seja, fazemos o R entender que existe algum tipo de gradao de um nvel para o outro.

# criando um fator ordenado
ilhas <- ilhas %>% 
  mutate(habitat_ordenado = as.ordered(habitat))
ilhas

## # A tibble: 80 x 13
##    ID    ilha  arquipelago riqueza   area produtividade populacao habitat
##    <chr> <chr> <chr>         <dbl>  <dbl>         <dbl>     <dbl> <fct>  
##  1 ilha~ cost~ medio            21 1.51e0          1.57      268. 2      
##  2 ilha~ cost~ medio            27 2.24e1          4.56      259. 2      
##  3 ilha~ cost~ pequeno          23 4.11e1          2.19      281. 3      
##  4 ilha~ ocea~ pequeno          10 2.13e3       2013.        145. 5      
##  5 ilha~ cost~ medio            34 1.00e3        244.        516. 4      
##  6 ilha~ ocea~ medio            13 3.92e1          3.17      579. 3      
##  7 ilha~ cost~ grande           43 3.89e1         18.4       389. 2      
##  8 ilha~ ocea~ grande           12 6.12e0          4.40      232. 3      
##  9 ilha~ ocea~ pequeno          13 3.17e2         14.3       156. 4      
## 10 ilha~ cost~ medio            32 7.86e1         35.8       403. 3      
## # ... with 70 more rows, and 5 more variables: montanha <chr>,
## #   mamiferos <dbl>, temperatura <dbl>, precipitacao <dbl>,
## #   habitat_ordenado <ord>
…
##  [1] 2 2 3 5 4 3 2 3 4 3 4 4 3 0 5 1 4 4 3 2 4 2 3 1 2 1 2 4 3 2 3 2 2 3 2
## [36] 5 4 3 3 4 1 3 3 3 3 2 4 1 4 4 1 3 3 1 2 4 3 2 2 2 3 3 2 2 3 2 1 2 5 5
## [71] 4 5 3 3 3 3 3 3 4 0
## Levels: 0 < 1 < 2 < 3 < 4 < 5

 bem raro que tenhamos que criar fatores ordenados, mas  importante que voc saiba que isso pode ser necessrio por vezes e, tambm, que saiba como criar este tipo de fator para as suas anlises.

Algumas vezes e provvel que o R importe um conjunto de dados e enxergue um coluna de nmeros como um caractere, ainda que naquela coluna contenham nmeros. Neste caso, voc pode coagir esta coluna a ser uma coluna de valores numricos - mas voc nunca vai conseguir coagir uma coluna com palavras a ser uma coluna numrica!

# note que aqui a coluna SJR e H index esto sendo interpretadas como caracteres
revistas

## # A tibble: 273 x 5
##    journal               Title               SJR        `H index` Country 
##    <chr>                 <chr>               <chr>      <chr>     <chr>   
##  1 Acta Amazonica        Acta Amazonica      0.3669999~ 21        Brazil  
##  2 Acta Biologica Colom~ Acta Biologica Col~ 0.218      8         Colombia
##  3 Acta Botanica Brasil~ Acta Botanica Bras~ 0.37       27        Brazil  
##  4 Acta Limnologica Bra~ Acta Limnologica B~ 0.2760000~ 7         Brazil  
##  5 Acta Oecologica       Acta Oecologica     0.879      57        Netherl~
##  6 Acta Scientiarum. Bi~ Acta Scientiarum -~ 0.1990000~ 17        Brazil  
##  7 Acta Tropica          Acta Tropica        1.01       81        Netherl~
##  8 African Journal of A~ NA                  NA         NA        NA      
##  9 Agraria               Revista Brasileira~ 0.26       7         Brazil  
## 10 Agroforestry Systems  Agroforestry Syste~ 0.4749999~ 60        Netherl~
## # ... with 263 more rows

# podemos coagir estas colunas a serem numricas
revistas %>% 
  mutate(SJR = as.numeric(SJR),
         `H index` = as.numeric(`H index`))

## Warning in evalq(as.numeric(SJR), <environment>): NAs introduced by
## coercion

## Warning in evalq(as.numeric(`H index`), <environment>): NAs introduced by
## coercion

## # A tibble: 273 x 5
##    journal                 Title                    SJR `H index` Country 
##    <chr>                   <chr>                  <dbl>     <dbl> <chr>   
##  1 Acta Amazonica          Acta Amazonica         0.367        21 Brazil  
##  2 Acta Biologica Colombi~ Acta Biologica Colom~  0.218         8 Colombia
##  3 Acta Botanica Brasilica Acta Botanica Brasil~  0.37         27 Brazil  
##  4 Acta Limnologica Brasi~ Acta Limnologica Bra~  0.276         7 Brazil  
##  5 Acta Oecologica         Acta Oecologica        0.879        57 Netherl~
##  6 Acta Scientiarum. Biol~ Acta Scientiarum - B~  0.199        17 Brazil  
##  7 Acta Tropica            Acta Tropica           1.01         81 Netherl~
##  8 African Journal of Agr~ NA                    NA            NA NA      
##  9 Agraria                 Revista Brasileirade~  0.26          7 Brazil  
## 10 Agroforestry Systems    Agroforestry Systems   0.475        60 Netherl~
## # ... with 263 more rows
…
